{
  "development": {
    "dialect": "sqlite",
    "storage": "./database.sqlite3"
  },
  "test": {
    "dialect": "sqlite",
    "storage": ":memory"
  },
 "production": {
    "username": "qzwyhxmuyqsbgw",
    "password": "845416c84bd88eeee8dd0139d95e2ea14895af0931b57c3c3cd7c5da4d0a7bd2",
    "database": "dercnrc7j8vet4",
    "host": "ec2-3-234-85-177.compute-1.amazonaws.com",
    "port" : "5432",
    "dialect": "postgres"
  }
}